…
# Exploratory Data Analysis

Now that we have the different endpoints to call the data from the API.
Lets do some data exploration. Lets take a look at the overall data on
fruits by calling the fruits_function() and storing the dataframe into
an object called fruit_data_full.

``` r
fruit_data_full <- fruits_full()
fruit_data_full
```

    ## # A tibble: 45 × 10
    ##    name           id family        order         genus calories   fat sugar carbohydrates protein
    ##    <chr>       <int> <chr>         <chr>         <chr>    <int> <dbl> <dbl>         <dbl>   <dbl>
    ##  1 Persimmon      52 Ebenaceae     Rosales       Dios…       81  0    18             18      0   
    ##  2 Strawberry      3 Rosaceae      Rosales       Frag…       29  0.4   5.4            5.5    0.8 
    ##  3 Banana          1 Musaceae      Zingiberales  Musa        96  0.2  17.2           22      1   
    ##  4 Tomato          5 Solanaceae    Solanales     Sola…       74  0.2   2.6            3.9    0.9 
    ##  5 Pear            4 Rosaceae      Rosales       Pyrus       57  0.1  10             15      0.4 
    ##  6 Durian         60 Malvaceae     Malvales      Durio      147  5.3   6.75          27.1    1.5 
    ##  7 Blackberry     64 Rosaceae      Rosales       Rubus       40  0.4   4.5            9      1.3 
    ##  8 Lingonberry    65 Ericaceae     Ericales      Vacc…       50  0.34  5.74          11.3    0.75
    ##  9 Kiwi           66 Actinidiaceae Struthionifo… Apte…       61  0.5   9             15      1.1 
    ## 10 Lychee         67 Sapindaceae   Sapindales    Litc…       66  0.44 15             17      0.8 
    ## # ℹ 35 more rows
…
The scatterplot does not seem to have a correlation between sugar and
calories within the Rosaceae family, which seems similar to what was
found for the full data.

Now that we have looked at using fruit_full(), fruit_by_order(), and
fruit_by_family(), lets do one more function API call using
fruits_by_nutrition_value() and show some summarization of data. We will
be using the default parameters.

``` r
calorie_data <- fruits_by_nutrition_value()
calorie_data
```

    ## # A tibble: 24 × 10
    ##    name           id family          order       genus calories   fat sugar carbohydrates protein
    ##    <chr>       <int> <chr>           <chr>       <chr>    <int> <dbl> <dbl>         <dbl>   <dbl>
    ##  1 Strawberry      3 Rosaceae        Rosales     Frag…       29  0.4   5.4            5.5    0.8 
    ##  2 Blackberry     64 Rosaceae        Rosales     Rubus       40  0.4   4.5            9      1.3 
    ##  3 Lingonberry    65 Ericaceae       Ericales    Vacc…       50  0.34  5.74          11.3    0.75
    ##  4 Pineapple      10 Bromeliaceae    Poales      Anan…       50  0.12  9.85          13.1    0.54
    ##  5 Gooseberry     69 Grossulariaceae Saxifragal… Ribes       44  0.6   0             10      0.9 
    ##  6 Plum           71 Rosaceae        Rosales     Prun…       46  0.28  9.92          11.4    0.7 
    ##  7 Orange          2 Rutaceae        Sapindales  Citr…       43  0.2   8.2            8.3    1   
    ##  8 GreenApple     72 Rosaceae        Rosales     Malus       21  0.1   6.4            3.1    0.4 
    ##  9 Watermelon     25 Cucurbitaceae   Cucurbital… Citr…       30  0.2   6              8      0.6 
    ## 10 Lemon          26 Rutaceae        Sapindales  Citr…       29  0.3   2.5            9      1.1 
    ## # ℹ 14 more rows
…
